{
  "date": "2018-06-01 15:01:26",
  "id": "725007d1f9611db8",
  "best_score_": 0.9316,
  "best_params_": {},
  "named_steps": [
    "cleaner",
    "cvec",
    "naivebayes"
  ],
  "description": "",
  "experiment_type": "GridsearchCV",
  "cv_results_": {
    "mean_fit_time": [
      0.6179489294687907
    ],
    "std_fit_time": [
      0.033012588520577764
    ],
    "mean_score_time": [
      0.2960646152496338
    ],
    "std_score_time": [
      0.008988538737720124
    ],
    "params": [
      {}
    ],
    "split0_test_score": [
      0.9364127174565087
    ],
    "split1_test_score": [
      0.9282928292829283
    ],
    "split2_test_score": [
      0.9300930093009301
    ],
    "mean_test_score": [
      0.9316
    ],
    "std_test_score": [
      0.003482047292665345
    ],
    "rank_test_score": [
      1
    ],
    "split0_train_score": [
      0.9485448544854486
    ],
    "split1_train_score": [
      0.9541022948852558
    ],
    "split2_train_score": [
      0.9503524823758812
    ],
    "mean_train_score": [
      0.9509998772488618
    ],
    "std_train_score": [
      0.0023145375406365084
    ]
  },
  "best_mean_train_score": 0.9509998772488618,
  "cv": null
}