{
  "date": "2018-05-29 19:00:39ahah",
  "named_steps": {
    "cleaner": "TextCleaner(replacements=[('\\\\d+', ' TAGNUMBER '), ('[\\\\W_]+', ' ')])",
    "cvec": "CountVectorizer(analyzer='word', binary=False, decode_error='strict',\n        dtype=<class 'numpy.int64'>, encoding='utf-8', input='content',\n        lowercase=True, max_df=1.0, max_features=None, min_df=1,\n        ngram_range=(1, 1), preprocessor=None, stop_words=None,\n        strip_accents=None, token_pattern='(?u)\\\\b\\\\w\\\\w+\\\\b',\n        tokenizer=None, vocabulary=None)",
    "naivebayes": "MultinomialNB(alpha=1.0, class_prior=None, fit_prior=True)"
  },
  "best_params_": {},
  "best_score_": 0.9315,
  "cv_results_": {
    "mean_fit_time": [
      0.6741310755411783
    ],
    "std_fit_time": [
      0.05012175033003541
    ],
    "mean_score_time": [
      0.3065683841705322
    ],
    "std_score_time": [
      0.0016555861096241725
    ],
    "params": [
      {}
    ],
    "split0_test_score": [
      0.9325134973005399
    ],
    "split1_test_score": [
      0.9333933393339334
    ],
    "split2_test_score": [
      0.9285928592859286
    ],
    "mean_test_score": [
      0.9315
    ],
    "std_test_score": [
      0.002086654384278959
    ],
    "rank_test_score": [
      1
    ],
    "split0_train_score": [
      0.9510951095109511
    ],
    "split1_train_score": [
      0.9505024748762562
    ],
    "split2_train_score": [
      0.9538023098845058
    ],
    "mean_train_score": [
      0.9517999647572376
    ],
    "std_train_score": [
      0.0014363944349378595
    ]
  },
  "best_mean_train_score": 0.9517999647572376,
  "cv": null,
  "id": "793e6b827b42e530",
  "description": "",
  "fake_attribute": null,
  "experiment_type": "GridsearchCV"
}