{
  "date": "2018-05-29 20:23:13",
  "id": "169abdd237d8dca8",
  "best_score_": 0.9519,
  "best_params_": null,
  "named_steps": [
    "cleaner",
    "cvec",
    "naivebayes"
  ],
  "description": "",
  "experiment_type": "Pipeline"
}