{
  "date": "2018-05-29 17:10:41",
  "named_steps": {
    "cleaner": "TextCleaner(replacements=[('\\\\d+', ' TAGNUMBER '), ('[\\\\W_]+', ' ')])",
    "cvec": "CountVectorizer(analyzer='word', binary=False, decode_error='strict',\n        dtype=<class 'numpy.int64'>, encoding='utf-8', input='content',\n        lowercase=True, max_df=1.0, max_features=None, min_df=1,\n        ngram_range=(1, 1), preprocessor=None, stop_words=None,\n        strip_accents=None, token_pattern='(?u)\\\\b\\\\w\\\\w+\\\\b',\n        tokenizer=None, vocabulary=None)",
    "naivebayes": "MultinomialNB(alpha=1.0, class_prior=None, fit_prior=True)"
  },
  "best_params_": {},
  "best_score_": 0.9466568625812597,
  "cv_results_": {
    "mean_fit_time": [
      8.000558058420816
    ],
    "std_fit_time": [
      0.18384441040131363
    ],
    "mean_score_time": [
      3.782135089238485
    ],
    "std_score_time": [
      0.032788007909364945
    ],
    "params": [
      {}
    ],
    "split0_test_score": [
      0.9487642251967714
    ],
    "split1_test_score": [
      0.9453524516193723
    ],
    "split2_test_score": [
      0.9458538052742405
    ],
    "mean_test_score": [
      0.9466568625812597
    ],
    "std_test_score": [
      0.001504158170790395
    ],
    "rank_test_score": [
      1
    ],
    "split0_train_score": [
      0.9512558909054447
    ],
    "split1_train_score": [
      0.9527987366204598
    ],
    "split2_train_score": [
      0.9523851302233475
    ],
    "mean_train_score": [
      0.9521465859164172
    ],
    "std_train_score": [
      0.0006520586706024111
    ]
  },
  "best_mean_train_score": 0.9521465859164172,
  "cv": null,
  "id": "32b66f3918e37386",
  "description": ""
}