{
  "date": "2018-05-22 09:46:54",
  "named_steps": {
    "logistic_regression": "LogisticRegression(C=1.0, class_weight=None, dual=False, fit_intercept=True,\n          intercept_scaling=1, max_iter=100, multi_class='ovr', n_jobs=1,\n          penalty='l2', random_state=None, solver='liblinear', tol=0.0001,\n          verbose=0, warm_start=False)"
  },
  "best_params_": {
    "logistic_regression__C": 0.1
  },
  "best_score_": 0.434,
  "cv_results_": {
    "mean_fit_time": [
      0.0024213790893554688,
      0.0021197001139322915
    ],
    "std_fit_time": [
      0.00010794667208731972,
      0.0001713018641054392
    ],
    "mean_score_time": [
      0.00033704439798990887,
      0.00020917256673177084
    ],
    "std_score_time": [
      6.885478297502425e-05,
      1.328504797234018e-05
    ],
    "param_logistic_regression__C": [
      0.1,
      1
    ],
    "params": [
      {
        "logistic_regression__C": 0.1
      },
      {
        "logistic_regression__C": 1
      }
    ],
    "split0_test_score": [
      0.4341317365269461,
      0.4341317365269461
    ],
    "split1_test_score": [
      0.4341317365269461,
      0.4311377245508982
    ],
    "split2_test_score": [
      0.43373493975903615,
      0.43373493975903615
    ],
    "mean_test_score": [
      0.434,
      0.433
    ],
    "std_test_score": [
      0.0001868638958602538,
      0.0013287050228443255
    ],
    "rank_test_score": [
      1,
      2
    ],
    "split0_train_score": [
      0.4339339339339339,
      0.43093093093093093
    ],
    "split1_train_score": [
      0.4339339339339339,
      0.43243243243243246
    ],
    "split2_train_score": [
      0.4341317365269461,
      0.4341317365269461
    ],
    "mean_train_score": [
      0.4339998681316046,
      0.43249836663010316
    ],
    "std_train_score": [
      9.324503657012268e-05,
      0.0013075548693872194
    ]
  },
  "best_mean_train_score": 0.4339998681316046,
  "cv": null,
  "id": "497dde925630f7fa",
  "description": ""
}