{
  "date": "2018-05-29 20:14:43",
  "id": "58bcde0f0e88b694",
  "named_steps": {
    "cleaner": "TextCleaner(replacements=[('\\\\d+', ' TAGNUMBER '), ('[\\\\W_]+', ' ')])",
    "cvec": "CountVectorizer(analyzer='word', binary=False, decode_error='strict',\n        dtype=<class 'numpy.int64'>, encoding='utf-8', input='content',\n        lowercase=True, max_df=1.0, max_features=None, min_df=1,\n        ngram_range=(1, 1), preprocessor=None, stop_words=None,\n        strip_accents=None, token_pattern='(?u)\\\\b\\\\w\\\\w+\\\\b',\n        tokenizer=None, vocabulary=None)",
    "naivebayes": "MultinomialNB(alpha=1.0, class_prior=None, fit_prior=True)"
  },
  "best_params_": {},
  "best_score_": 0.9338,
  "cv_results_": {
    "mean_fit_time": [
      0.632473866144816
    ],
    "std_fit_time": [
      0.011110719726852734
    ],
    "mean_score_time": [
      0.302242914835612
    ],
    "std_score_time": [
      0.003599661784875458
    ],
    "params": [
      {}
    ],
    "split0_test_score": [
      0.937612477504499
    ],
    "split1_test_score": [
      0.9252925292529253
    ],
    "split2_test_score": [
      0.9384938493849385
    ],
    "mean_test_score": [
      0.9338
    ],
    "std_test_score": [
      0.006025991795326303
    ],
    "rank_test_score": [
      1
    ],
    "split0_train_score": [
      0.951995199519952
    ],
    "split1_train_score": [
      0.9512524373781311
    ],
    "split2_train_score": [
      0.951552422378881
    ],
    "mean_train_score": [
      0.9516000197589881
    ],
    "std_train_score": [
      0.00030509346412247856
    ]
  },
  "best_mean_train_score": 0.9516000197589881,
  "cv": null,
  "description": "",
  "experiment_type": "GridsearchCV"
}